<?xml version="1.0" encoding="utf-8"?>
<!-- Generator: Adobe Illustrator 19.0.0, SVG Export Plug-In . SVG Version: 6.00 Build 0)  -->
<svg version="1.1" id="Layer_1" xmlns="http://www.w3.org/2000/svg" xmlns:xlink="http://www.w3.org/1999/xlink" x="0px" y="0px"
	 viewBox="0 0 50 50" style="enable-background:new 0 0 50 50;" xml:space="preserve">
<style type="text/css">
	.st0{fill:none;stroke:#989898;stroke-width:2;stroke-miterlimit:10;}
	.st1{fill:#CDCCCC;}
</style>
<circle id="XMLID_1_" class="st0" cx="25" cy="25" r="17.6"/>
<circle id="XMLID_4_" class="st1" cx="25" cy="25" r="10.9"/>
</svg>
