<?xml version="1.0" encoding="utf-8"?>
<!-- Generator: Adobe Illustrator 19.0.0, SVG Export Plug-In . SVG Version: 6.00 Build 0)  -->
<svg version="1.1" id="Layer_1" xmlns="http://www.w3.org/2000/svg" xmlns:xlink="http://www.w3.org/1999/xlink" x="0px" y="0px"
	 viewBox="-4 6 40 40" style="enable-background:new -4 6 40 40;" xml:space="preserve">
<style type="text/css">
	.st0{fill:none;stroke:#999999;stroke-width:2;stroke-miterlimit:10;}
	.st1{fill:#FFFFFF;stroke:#999999;stroke-width:2;stroke-miterlimit:10;}
	.st2{fill:#FFFFFF;}
	.st3{fill:#CCCCCC;}
</style>
<circle id="XMLID_1_" class="st0" cx="16" cy="25.9" r="10.8"/>
<rect id="XMLID_3_" x="12.1" y="36.3" class="st1" width="7.7" height="9.6"/>
<rect x="13.1" y="34.5" class="st2" width="5.8" height="12.5"/>
<circle id="XMLID_4_" class="st3" cx="16" cy="25.9" r="6.7"/>
</svg>
