<?xml version="1.0" encoding="utf-8"?>
<!-- Generator: Adobe Illustrator 19.0.0, SVG Export Plug-In . SVG Version: 6.00 Build 0)  -->
<svg version="1.1" id="Layer_1" xmlns="http://www.w3.org/2000/svg" xmlns:xlink="http://www.w3.org/1999/xlink" x="0px" y="0px"
	 viewBox="-4 6 40 40" style="enable-background:new -4 6 40 40;" xml:space="preserve">
<style type="text/css">
	.st0{fill:#999999;}
	.st1{fill:none;stroke:#999999;stroke-width:1.5;stroke-miterlimit:10;}
</style>
<g>
	<path class="st0" d="M25.2,11.2c0-1.1-0.7-1.4-1.5-0.7L8.4,23.3c-0.8,0.7-0.8,1.9,0,2.6l15.2,12.8c0.8,0.7,1.5,0.4,1.5-0.7V11.2z"
		/>
	<path class="st1" d="M25.2,11.2c0-1.1-0.7-1.4-1.5-0.7L8.4,23.3c-0.8,0.7-0.8,1.9,0,2.6l15.2,12.8c0.8,0.7,1.5,0.4,1.5-0.7V11.2z"
		/>
</g>
</svg>
