<?xml version="1.0" encoding="utf-8"?>
<!-- Generator: Adobe Illustrator 19.0.0, SVG Export Plug-In . SVG Version: 6.00 Build 0)  -->
<svg version="1.1" id="Layer_1" xmlns="http://www.w3.org/2000/svg" xmlns:xlink="http://www.w3.org/1999/xlink" x="0px" y="0px"
	 viewBox="0 0 50 50" style="enable-background:new 0 0 50 50;" xml:space="preserve">
<style type="text/css">
	.st0{fill:#77AD60;}
	.st1{fill:#595A5C;}
</style>
<circle id="XMLID_1_" class="st0" cx="25" cy="25" r="23.4"/>
<rect id="XMLID_2_" x="23.3" y="16.1" class="st1" width="3.4" height="17.7"/>
<rect id="XMLID_3_" x="16.1" y="23.3" class="st1" width="17.7" height="3.4"/>
</svg>
