<?xml version="1.0" encoding="utf-8"?>
<!-- Generator: Adobe Illustrator 19.0.0, SVG Export Plug-In . SVG Version: 6.00 Build 0)  -->
<svg version="1.1" id="Layer_1" xmlns="http://www.w3.org/2000/svg" xmlns:xlink="http://www.w3.org/1999/xlink" x="0px" y="0px"
	 viewBox="0 0 50 50" style="enable-background:new 0 0 50 50;" xml:space="preserve">
<style type="text/css">
	.st0{fill:#666766;}
</style>
<g id="XMLID_2_">
	<path id="XMLID_4_" class="st0" d="M38.4,33.7c1.1,0,1.4-0.7,0.7-1.5L26.3,16.9c-0.7-0.8-1.9-0.8-2.6,0L10.9,32.2
		c-0.7,0.8-0.4,1.5,0.7,1.5H38.4z"/>
	<path id="XMLID_3_" class="st0" d="M38.4,33.7c1.1,0,1.4-0.7,0.7-1.5L26.3,16.9c-0.7-0.8-1.9-0.8-2.6,0L10.9,32.2
		c-0.7,0.8-0.4,1.5,0.7,1.5H38.4z"/>
</g>
</svg>
